{{- /* Generate the search index. */ -}}
{{- $index := slice -}}
{{- $pages := site.RegularPages -}}

{{- range $pages -}}
	{{- $title := replaceRE "[[:^alpha:]]" " " .File.TranslationBaseName | humanize -}}    
	{{- $permalink := substr .RelPermalink 1 100 -}}

    {{- /* Add page to index. */ -}}
{{- /* {{- $index = $index | append (dict "permalink" $permalink "title" $title "content" .Plain) -}} */ -}}
	{{- $index = $index | append (dict "permalink" $permalink "title" $title "content" .RawContent) -}}

  
{{- end -}}

{{- print "var searchData = " ($index | jsonify) -}}
